<?xml version="1.0" encoding="utf-8"?>
<!-- Generator: Adobe Illustrator 19.0.0, SVG Export Plug-In . SVG Version: 6.00 Build 0)  -->
<svg version="1.1" id="Layer_1" xmlns="http://www.w3.org/2000/svg" xmlns:xlink="http://www.w3.org/1999/xlink" x="0px" y="0px"
	 viewBox="0 0 328.8 414.2" style="enable-background:new 0 0 328.8 414.2;" xml:space="preserve">
<style type="text/css">
	.st0{fill:#13A6DF;}
</style>
<g id="_x38_">
	<path class="st0" d="M111.5,75.6C66.9,102.7,49.5,159.5,71,207.8c4.9,11,12.5,20.3,19.8,29.4c9.2,11.3,17.9,22,21.8,35.7
		c2.3,8.1,3.9,16.1,5.4,23.8c3.3,17.2,6.5,33.6,18,49c-0.2,0.3-0.4,0.5-0.5,0.8c-0.3,0.8-0.4,1.6-0.3,2.4c-0.9,1.2-1.6,2.7-1.7,4.4
		c-0.3,3.2,0.8,6.6,3.1,8.9c-2.3,4.7,0,10.5,3.9,13.5c0.2,0.1,0.4,0.2,0.6,0.3c-3.3,5.7-1.3,13.4,2.9,17.6c1.7,1.7,3.9,3,6.2,4.1
		c-1,4.5,1.4,9.4,4.8,12.2c3.3,2.8,7.7,4.3,12.1,4.3c2.5,0,4.9-0.5,7.2-1.4c6.3-2.7,10.8-9.1,11.2-16c0-0.6-0.2-1.2-0.6-1.6
		c0.7,0.7,6.3-5,6.8-5.7c1.5-2.2,2.6-5.3,3-7.8c0.1-0.8-1-7.4-1.3-7.1c0,0,0.1-0.1,0.1-0.1c4.7-4.2,7.8-11.9,4.8-18.5
		c-0.2-0.4-0.4-0.6-0.7-0.8c1.3-3.3,1.4-7.1-0.5-10.3c-0.6-1-1.9-1.3-2.9-0.7c11.1-14.4,14.3-32.5,17.4-50.1c0.8-4.7,1.7-9.4,2.6-14
		c2.4-11.4,6-24.4,14.6-34.9c2-2.4,3.9-4.7,5.9-7.1c6.3-7.4,12.3-14.4,17.1-23.3c18.3-33.9,24.8-83.7-1.9-118.5
		C217.1,53.6,151.8,51.1,111.5,75.6z M148.3,192.5c4.8,4.3,10.9,7,17.4,6.9c5.9,0,11.7-2.2,16.5-5.8c1.5,2.3,3.4,4.5,5.5,6.2
		c3.2,2.7,7.1,4.5,11.1,5.5c-0.8,2.5-1.5,5-2.1,7.2c-12.1,45-24.6,91.4-26.2,139c-0.9,0.1-1.7,0.2-2.6,0.2c-2.7,0-5.5-0.1-8.2-0.3
		c-6.3-49.5-18.2-96.6-35.3-140.3c2.5-0.5,5-1.4,7.4-2.6C138.9,204.9,144.4,198.9,148.3,192.5z M147.4,185.1
		c-0.9-1.4-1.7-2.8-2.3-4.4c-2.7-6.9-2.3-9-2-9.6c0.5-1,1.6-1.7,3-1.9c0.3,0,0.6-0.1,0.8-0.1c1.1,0,2.1,0.3,2.7,1
		c1.7,1.8,1.2,5.1,0.5,7.6C149.4,180.3,148.5,182.8,147.4,185.1z M182.3,170.8c0.8-2.8,2.7-5.5,4.8-5.5c0.1,0,0.3,0,0.4,0
		c0.7,0.1,1.3,0.5,1.8,1.2c1.1,1.5,1.4,4.3,1,6.8c-1,5.1-3.5,9.8-6.9,13.5C181.4,181.8,180.9,176.1,182.3,170.8z M166.9,355.9
		c0.4,0,0.8,0,1.2,0c10.1-0.2,19-2.6,26-6.9c0,0.2,0.1,0.3,0.1,0.5c-7,5.1-15.6,8.2-24.2,8.6c-1.2,0.1-2.1,1.1-2,2.2
		c0.1,1.1,1,2,2.1,2c0,0,0.1,0,0.1,0c7.9-0.4,15.8-2.9,22.7-6.9c-0.7,1.1-1.5,2.2-2.4,2.9c-3.7,3.1-8.8,4.1-13.4,4.7
		c-8.7,1.2-17.5,1.3-26.2,0.3c-4-0.5-8.5-1.3-11.2-4.1c-1.4-1.4-2.1-3.6-1.9-5.6c0-0.4,0.2-1,0.4-1.5c0.9,0.4,1.8,0.6,2.5,0.7
		C149.1,354.4,157.9,355.9,166.9,355.9z M172.5,408.9c-4.9,2.1-10.8,1.2-14.9-2.2c-2.2-1.8-3.8-4.9-3.5-7.6c2.3,0.6,4.8,1.1,7.5,1.2
		c0.7,0,1.4,0,2.1,0c5,0,9.9-0.8,14.7-2.3c0.9-0.3,1.8-0.7,2.7-1C180.7,402.2,177.3,406.9,172.5,408.9z M190,383.1
		c-6.9,3.3-14.7,4.6-22.3,3.5c-1.1-0.2-2.2,0.6-2.4,1.8c-0.2,1.2,0.6,2.2,1.8,2.4c2,0.3,4.1,0.5,6.2,0.5c4.4,0,8.8-0.8,13.1-2.1
		c-2.2,2-5.3,3.7-9.1,5c-5,1.6-10.1,2.3-15.3,2.1c-4.6-0.2-10.9-1.3-15-5.5c-3.1-3.1-4.6-8.8-2.2-12.7c2.9,1.2,6.1,1.8,9.2,2.2
		c5,0.7,10.3,1.3,15.8,1.3c2.1,0,4.2-0.1,6.3-0.3c5.5-0.5,10.1-1.9,13.8-4C190.5,378.9,190.6,381,190,383.1z M195.2,362.6
		c-0.4,0-0.8,0.2-1.2,0.5c-7.3,6.2-17.4,9.1-26.8,7.8c-1.1-0.2-2.2,0.6-2.4,1.8c-0.2,1.2,0.6,2.2,1.8,2.4c1.7,0.2,3.3,0.3,5,0.3
		c7.4,0,14.8-2.2,21-6.1c-0.6,0.8-1.2,1.6-1.9,2.2c-3.4,3.1-8.6,4.9-15.2,5.5c-7.2,0.7-14.4-0.1-21.1-0.9c-4.3-0.6-8.4-1.3-11.4-3.7
		c-2.2-1.7-3.7-5-3-7.6c3.2,1.7,6.9,2.4,10.4,2.8c4.2,0.5,8.4,0.7,12.6,0.7c4.9,0,9.8-0.3,14.6-1c5.2-0.7,11.1-1.9,15.6-5.7
		c0.7-0.6,1.3-1.3,1.9-2C195.2,360.5,195.3,361.6,195.2,362.6z M248.1,212.9c-4.6,8.5-10.4,15.3-16.6,22.5c-2,2.3-4,4.7-6,7.1
		c-9.1,11.2-12.9,24.8-15.5,36.7c-1,4.7-1.8,9.4-2.7,14.2c-3.5,20-7.1,40.6-22.7,54.9c-0.2,0.2-0.3,0.4-0.4,0.6
		c-2.9,1-6,1.8-9.4,2.2c1.6-46.9,14-93,26-137.6c0.7-2.6,1.4-5.2,2.2-7.6c5.5,0.6,11.1-0.3,16-2.7c5.5-2.8,9.7-8.8,7.2-14
		c-1.1-2.2-2.9-3.6-5.4-4.2c-3.6-0.8-8.2,0.4-11.4,3c-4.3,3.5-7.1,8.3-9.1,13.2c-3.6-0.8-7-2.5-9.9-4.8c-2-1.6-3.7-3.6-5-5.8
		c4.5-4.4,7.8-10.2,9-16.7c0.6-2.9,0.4-7.1-1.7-10c-1.1-1.6-2.7-2.6-4.6-2.9c-5-0.7-8.6,3.9-9.9,8.6c-1.8,6.6-1,13.9,1.9,20.1
		c-4.2,3.3-9.3,5.3-14.5,5.3c0,0-0.1,0-0.1,0c-5.5,0-11-2.5-15.1-6.5c1.7-3.3,2.9-6.6,3.8-9.7c1.5-5.2,1-9.2-1.5-11.7
		c-1.7-1.8-4.4-2.6-7.2-2.1c-2.8,0.4-5.1,2-6.2,4.2c-1.6,3.1,0.1,8.3,1.9,13c1,2.6,2.4,4.9,4,7c-4,6.9-9.4,12.4-15.2,15.4
		c-2.3,1.2-4.7,2-7.1,2.4c-0.8-2-1.6-3.9-2.4-5.9c-1.7-4.2-3.4-7.8-6.5-10.7c-3.7-3.4-6.5-3.3-8.2-2.6c-2.4,1-3.9,3.8-4,7.4
		c-0.2,5,2.2,11.3,7.8,14c3.2,1.6,6.8,2.3,10.5,2.2c17.1,43.4,28.9,90.2,35.3,139.4c-3.8-0.5-7.6-1.1-11.3-1.7
		c-0.1-0.3-0.2-0.6-0.5-0.8c-14.5-16.2-17.9-33.8-21.5-52.5c-1.5-7.8-3-15.9-5.4-24.1c-4.2-14.5-13.6-26-22.6-37.2
		c-7.2-8.8-14.6-18-19.2-28.4c-20.6-46.3-4-100.9,38.8-126.9c38.8-23.6,101.4-21.3,132.9,19.7C272.1,132.3,265.7,180.2,248.1,212.9z
		 M204.6,202c1.8-4.2,4.1-7.9,7.4-10.6c2.2-1.8,5.5-2.7,7.8-2.2c1.2,0.3,2.1,0.9,2.5,1.9c1.5,3-2.1,6.8-5.3,8.4
		C213.3,201.5,208.9,202.3,204.6,202z M118.5,207.3c-2.5-0.1-4.8-0.7-6.9-1.7c-3.9-1.9-5.6-6.6-5.5-10.1c0-2.1,0.8-3.4,1.4-3.7
		c0.1,0,0.2-0.1,0.4-0.1c0.7,0,1.8,0.5,3.3,1.9c2.5,2.2,3.9,5.5,5.4,9.2C117.3,204.3,117.9,205.8,118.5,207.3z"/>
	<path class="st0" d="M112.9,97.4c-6,0.7-10.3,5.4-13.4,9.5c-13.5,17.8-21.5,39.8-22.3,62.2c0,1,0.7,1.9,1.7,2.2l12,2.4
		c0.1,0,0.3,0,0.4,0c0.4,0,0.9-0.1,1.2-0.4c0.5-0.3,0.8-0.9,0.8-1.5c2.9-25.1,16-48.4,35.8-64c0.5-0.4,0.8-1,0.8-1.6
		c0-0.6-0.3-1.2-0.8-1.7C124.4,100.5,119.1,96.7,112.9,97.4z M89.4,169l-8-1.6c1.2-20.9,8.7-41.4,21.4-58c2.6-3.4,6.2-7.4,10.5-7.9
		c3.9-0.5,7.6,1.8,11.2,4.6C105.5,121.9,92.8,144.6,89.4,169z"/>
	<path class="st0" d="M45.7,162.7c-3.6-0.7-7.2-2.1-11-3.6c-5.7-2.2-11.5-4.5-17.8-4.5c-1.8,0-3.6,0.2-5.4,0.6
		c-4,0.9-9.2,4.4-11,9.1c-1.1,3-0.7,5.9,1.3,8.5c1.7,2.3,4.7,3.7,8.1,3.8c0,0,0.4,0,0.4,0c2.7,0,5.2-0.7,7.4-1.3
		c8.6-2.2,15.9-4.3,22.2-6.4c2-0.7,4-1.4,6-2.2c0.9-0.3,1.4-1.2,1.4-2.1C47.3,163.6,46.6,162.9,45.7,162.7z M16.8,171.2
		c-2,0.6-4.2,1.2-6.3,1.2v2.1l-0.3-2.1c-2.1-0.1-3.9-0.9-4.9-2.1c-1.1-1.4-1.3-2.9-0.7-4.5c1.1-3.1,5-5.8,7.9-6.5
		c1.5-0.3,2.9-0.5,4.5-0.5c5.5,0,10.7,2,16.3,4.2c1.7,0.7,3.5,1.4,5.2,2C32.3,167.1,25.2,169.1,16.8,171.2z"/>
	<path class="st0" d="M80,83.2c0.6,0,1.2-0.3,1.6-0.7c0.7-0.8,0.7-1.9,0-2.8L63.3,58.6c-2.3-2.7-5.2-6-9.3-7.4
		c-1.1-0.4-2.2-0.6-3.4-0.6c-4,0-7.3,2.1-8.5,5.3c-1.4,4,0.9,8.1,3.7,10.2c2.3,1.8,5,2.7,7.5,3.5l1.3,0.4c8.6,3,16.6,8,24.3,12.8
		C79.3,83.1,79.6,83.2,80,83.2z M56,66.1l-1.3-0.5c-2.3-0.8-4.6-1.5-6.3-2.9c-1.7-1.3-3-3.6-2.3-5.5c0.6-1.7,2.7-2.5,4.5-2.5
		c0.7,0,1.4,0.1,2,0.3c3,1.1,5.4,3.8,7.5,6.2l9.6,11.1C65.3,70,60.8,67.8,56,66.1z"/>
	<path class="st0" d="M133.5,53.6c0.4,0.6,1,0.9,1.7,0.9c0.2,0,0.4,0,0.6-0.1c0.9-0.2,1.5-1,1.5-1.9c0.8-12-3-31.6-10.7-42.4
		c-2-2.9-5.4-4.5-8.4-3.8c-3.3,0.7-4.7,2.7-5.3,4.2c-2.6,6.6,3.6,19.8,19.5,41.5L133.5,53.6z M116.8,12c0.2-0.6,0.7-1.3,2.2-1.6
		c0.2,0,0.4,0,0.5,0c1.3,0,2.7,0.8,3.6,2.2c5.9,8.3,9.4,22.4,9.9,33.4C116.6,22.6,115.8,14.7,116.8,12z"/>
	<path class="st0" d="M196,54c0.1,0,0.1,0,0.2,0c0.8,0,1.5-0.4,1.9-1.1c6.1-11.9,13.1-25.5,15-40c0.3-2.4,0.5-4.9-0.3-7.4
		c-1.1-3.1-3.7-5.3-6.5-5.5c0,0-0.4,0-0.5,0c-2.9,0-5.5,1.8-7.8,5.4c-9.5,14.5-8.4,29.3-3.9,47C194.4,53.3,195.1,53.9,196,54z
		 M201.6,7.7c0.8-1.3,2.5-3.5,4.4-3.5l0,0c1.3,0.1,2.4,1.4,2.8,2.6c0.6,1.7,0.4,3.6,0.1,5.5c-1.6,11.8-6.6,22.9-12,33.5
		C193.9,31.6,193.9,19.4,201.6,7.7z"/>
	<path class="st0" d="M256.7,27c-7.6,2.4-12.7,9.5-15.6,21.8c-1.4,6-2.2,12.2-2.8,17.7c-0.2,2-0.5,3.8-0.7,5.5
		c-0.2,1.2,0.6,2.2,1.8,2.4c0.1,0,0.2,0,0.3,0c1,0,1.9-0.8,2.1-1.8l0,0c0.2-1.7,4.5-5.5,7.1-7.8c2.2-2,4.1-3.7,5.2-5.2
		c2.5-3.4,5.2-6.8,7.8-10.1c1.4-1.7,2.7-3.4,4-5.1c2.4-3.1,4.7-6.7,3.9-10.8C268.6,27.6,261.5,25.4,256.7,27z M262.6,41.6
		c-1.3,1.7-2.7,3.4-4,5c-2.7,3.3-5.4,6.8-8,10.3c-0.8,1.1-2.7,2.8-4.6,4.5c-1.2,1.1-2.3,2.1-3.3,3c0.6-4.7,1.3-9.9,2.5-14.8
		C247.8,39,251.9,32.9,258,31c0.6-0.2,1.3-0.3,2-0.3c2.4,0,5.2,1.3,5.7,3.6C266.1,36.7,264.5,39.2,262.6,41.6z"/>
	<path class="st0" d="M328,109.6c-1.1-2.2-3.1-4-5.9-5.4c-3.2-1.4-6.5-2.1-9.7-2.1c-12,0-21.1,9.7-29.1,18.3
		c-1.1,1.1-2.1,2.3-3.1,3.3c-0.8,0.8-0.8,2.2,0.1,3c0.4,0.4,0.9,0.6,1.4,0.6c0.3,0,0.5,0,0.7-0.1c1-0.2,5.9-0.8,9.2-1.1
		c3.1-0.3,6-0.7,6.7-0.8l21.9-3.9c2-0.4,5-0.9,6.9-3.1C329.1,115.9,329.4,112.5,328,109.6z M324,115.4c-0.9,1-2.5,1.4-4.4,1.7
		l-21.9,3.9c-0.7,0.1-3.4,0.4-6.5,0.8c-1.5,0.2-2.7,0.3-3.8,0.4c7.2-7.7,15.4-16,25.1-16c2.6,0,5.3,0.6,7.9,1.7
		c1.3,0.6,3.1,1.8,3.9,3.4C324.9,112.8,324.8,114.5,324,115.4z"/>
	<path class="st0" d="M291,170.6c-3.4,0-6.7,0.1-9.5,0.3c-0.8,0-1.6,0.6-1.9,1.4c-0.3,0.8-0.1,1.7,0.6,2.3c3.5,3.3,7.5,6.3,11.3,9.2
		c1.7,1.3,3.4,2.5,5,3.9c4.7,3.7,9.9,7.2,15.4,7.2c2.6,0,5.1-0.8,7.3-2.4c3.3-2.4,4.2-5,4.4-6.7c0.1-1.6-0.3-4-2.8-6.6
		C313.3,171.4,300.2,170.6,291,170.6z M316.6,188.9c-1.5,1.1-3.1,1.6-4.8,1.6c-4.3,0-8.9-3.2-12.8-6.3c-1.7-1.3-3.3-2.6-5.1-3.9
		c-2.3-1.8-4.7-3.6-7-5.5c1.3,0,2.7,0,4.1,0c13.2,0,21.9,2.3,26.7,7.2c1.1,1.2,1.7,2.3,1.6,3.3C319.1,186.7,317.8,188,316.6,188.9z"
		/>
	<path id="XMLID_134_" class="st0" d="M230,107.9c-0.3-1.1-1.4-1.8-2.6-1.5l-21,5.5c-1.1,0.3-1.8,1.4-1.5,2.6c0.3,0.9,1.1,1.6,2,1.6
		c0.2,0,0.3,0,0.5-0.1l21-5.5C229.6,110.2,230.3,109,230,107.9z"/>
	<path id="XMLID_133_" class="st0" d="M232.8,115.4c-0.7-1-2-1.2-2.9-0.5c-5.6,3.9-12.2,6.4-19,7c-1.2,0.1-2,1.1-1.9,2.3
		c0.1,1.1,1,1.9,2.1,1.9c0.1,0,0.1,0,0.2,0c7.5-0.7,14.8-3.4,21-7.7C233.2,117.7,233.5,116.4,232.8,115.4z"/>
	<path id="XMLID_132_" class="st0" d="M244.5,125.1c-0.6-1-1.9-1.4-2.9-0.8c-8.4,4.8-17.9,7.6-27.5,8.2c-1.2,0.1-2,1.1-2,2.2
		c0.1,1.1,1,2,2.1,2c0,0,0.1,0,0.1,0c10.3-0.7,20.4-3.7,29.3-8.8C244.7,127.3,245.1,126.1,244.5,125.1z"/>
	<path id="XMLID_131_" class="st0" d="M242.4,141.9c-0.6-1-1.9-1.4-2.9-0.8c-5.8,3.2-12.4,5-19,5c-1.2,0-2.1,1-2.1,2.1
		c0,1.2,1,2.1,2.1,2.1h0c7.3,0,14.6-2,21-5.5C242.6,144.2,243,143,242.4,141.9z"/>
	<path id="XMLID_130_" class="st0" d="M242.4,150.8c-3.1,2.5-7.2,3.9-11.2,3.7c-1.1-0.1-2.1,0.9-2.2,2c0,1.2,0.9,2.1,2,2.2
		c0.3,0,0.5,0,0.8,0c4.8,0,9.6-1.7,13.3-4.7c0.9-0.7,1-2.1,0.3-3C244.6,150.2,243.3,150.1,242.4,150.8z"/>
</g>
</svg>
