<?xml version="1.0" encoding="utf-8"?>
<!-- Generator: Adobe Illustrator 21.1.0, SVG Export Plug-In . SVG Version: 6.00 Build 0)  -->
<svg version="1.1" id="Layer_1" xmlns="http://www.w3.org/2000/svg" xmlns:xlink="http://www.w3.org/1999/xlink" x="0px" y="0px"
	 viewBox="0 0 61 39.7" style="enable-background:new 0 0 61 39.7;" xml:space="preserve">
<style type="text/css">
	.st0{fill:#ffffff;}
</style>
<g>
	<polygon id="XMLID_1_" class="st0" points="61,30.5 51.9,39.7 30.5,18.4 9.2,39.7 0,30.5 30.5,0 	"/>
</g>
</svg>
